\relax 
\@input{abstract.aux}
\@input{dedication.aux}
\@input{ack.aux}
\citation{alleghenymap}
\citation{googlemaps}
\citation{wiscmap}
\citation{wiscmap}
\citation{wiscmap}
\citation{owumap}
\citation{oberlinmap}
\citation{hirammap}
\citation{wabashmap}
\citation{oregonmap}
\citation{uclmap}
\citation{uclmap}
\citation{arcgisDevs}
\citation{osmwiki}
\citation{turbo87}
\citation{deickr}
\@writefile{toc}{\contentsline {chapter}{List of Figures}{viii}}
\@input{ch01_overview.aux}
\@input{ch02_relatedwork.aux}
\@input{ch03_methodofapproach.aux}
\@input{ch04_implementation.aux}
\@input{ch05_conclusion.aux}
\@input{appa.aux}
\citation{*}
\bibstyle{plain}
\bibdata{Bibdir/proposal_rough_draft}
\bibcite{leaflet}{1}
\bibcite{alleghenyvisitor}{2}
\bibcite{alleghenymap}{3}
\bibcite{hirammap}{4}
\bibcite{kenyonmap}{5}
\bibcite{oberlinmap}{6}
\bibcite{wabashmap}{7}
\bibcite{woostermap}{8}
\bibcite{deickr}{9}
\bibcite{googlegeocoding}{10}
\bibcite{arcgisDevs}{11}
\bibcite{googlemaps}{12}
\bibcite{googlemymap}{13}
\bibcite{googledev}{14}
\bibcite{haklay2008openstreetmap}{15}
\@writefile{toc}{\contentsline {chapter}{Bibliography}{58}}
\bibcite{hu2013online}{16}
\bibcite{jacob2009campus}{17}
\bibcite{photon}{18}
\bibcite{liang2012building}{19}
\bibcite{mapbox}{20}
\bibcite{uclmap}{21}
\bibcite{oregonmap}{22}
\bibcite{wiscmap-about}{23}
\bibcite{wiscmap}{24}
\bibcite{pointhi}{25}
\bibcite{roth200921st}{26}
\bibcite{svennerberg2010beginning}{27}
\bibcite{tilemill}{28}
\bibcite{turbo87}{29}
\bibcite{illinoismap}{30}
\bibcite{denisonmap}{31}
\bibcite{depauwmap}{32}
\bibcite{emorymap}{33}
\bibcite{owumap}{34}
\bibcite{wittmap}{35}
\bibcite{top10api}{36}
\bibcite{osmwiki}{37}
\bibcite{nominatim}{38}
\bibcite{overpasswiki}{39}
\bibcite{osmblog}{40}
\bibcite{yang2009design}{41}
