\relax 
\@writefile{toc}{\contentsline {chapter}{\numberline {A}HTML Code}{38}}
\@writefile{lof}{\addvspace {10\p@ }}
\@writefile{lot}{\addvspace {10\p@ }}
\@writefile{loa}{\addvspace {10\p@ }}
\newlabel{appa:code}{{A}{38}}
\@writefile{lol}{\contentsline {lstlisting}{mapDraft2.html}{38}}
\@writefile{toc}{\contentsline {chapter}{\numberline {B}JavaScript Code}{40}}
\@writefile{lof}{\addvspace {10\p@ }}
\@writefile{lot}{\addvspace {10\p@ }}
\@writefile{loa}{\addvspace {10\p@ }}
\@writefile{lol}{\contentsline {lstlisting}{Script2.js}{40}}
\@writefile{toc}{\contentsline {chapter}{\numberline {C}CSS Code}{56}}
\@writefile{lof}{\addvspace {10\p@ }}
\@writefile{lot}{\addvspace {10\p@ }}
\@writefile{loa}{\addvspace {10\p@ }}
\@writefile{lol}{\contentsline {lstlisting}{Stylesheet2.css}{56}}
\@setckpt{appa}{
\setcounter{page}{58}
\setcounter{equation}{0}
\setcounter{enumi}{0}
\setcounter{enumii}{0}
\setcounter{enumiii}{0}
\setcounter{enumiv}{0}
\setcounter{footnote}{0}
\setcounter{mpfootnote}{0}
\setcounter{part}{0}
\setcounter{chapter}{3}
\setcounter{section}{0}
\setcounter{subsection}{0}
\setcounter{subsubsection}{0}
\setcounter{paragraph}{0}
\setcounter{subparagraph}{0}
\setcounter{figure}{0}
\setcounter{table}{0}
\setcounter{parentequation}{0}
\setcounter{lstnumber}{34}
\setcounter{AlgoLine}{0}
\setcounter{algocfline}{0}
\setcounter{algocfproc}{0}
\setcounter{algocf}{0}
\setcounter{lstlisting}{0}
}
