\relax 
\citation{alleghenymap}
\citation{kenyonmap}
\citation{woostermap}
\citation{denisonmap}
\citation{depauwmap}
\citation{wittmap}
\citation{haklay2008openstreetmap}
\citation{haklay2008openstreetmap}
\citation{haklay2008openstreetmap}
\citation{osmblog}
\citation{svennerberg2010beginning}
\citation{liang2012building}
\citation{svennerberg2010beginning}
\citation{googledev}
\@writefile{toc}{\contentsline {chapter}{\numberline {1}Introduction}{1}}
\@writefile{lof}{\addvspace {10\p@ }}
\@writefile{lot}{\addvspace {10\p@ }}
\@writefile{loa}{\addvspace {10\p@ }}
\newlabel{ch:intro}{{1}{1}}
\@writefile{toc}{\contentsline {section}{\numberline {1.1}Motivation}{2}}
\newlabel{sec:motivation}{{1.1}{2}}
\@writefile{toc}{\contentsline {section}{\numberline {1.2}Current State of the Campus Map}{3}}
\newlabel{sec:stateofart}{{1.2}{3}}
\citation{alleghenymap}
\@writefile{lof}{\contentsline {figure}{\numberline {1.1}{\ignorespaces Current Allegheny College Campus Map found at \url {Allegheny.edu} \cite  {alleghenymap}}}{4}}
\citation{googlemaps}
\@writefile{lof}{\contentsline {figure}{\numberline {1.2}{\ignorespaces Current Allegheny College Campus Map found on Google Maps \cite  {googlemaps}}}{5}}
\@writefile{toc}{\contentsline {section}{\numberline {1.3}Goals of the Project}{6}}
\newlabel{sec:goals}{{1.3}{6}}
\@writefile{toc}{\contentsline {section}{\numberline {1.4}Thesis Outline}{7}}
\newlabel{sec:outline}{{1.4}{7}}
\@setckpt{ch01_overview}{
\setcounter{page}{8}
\setcounter{equation}{0}
\setcounter{enumi}{0}
\setcounter{enumii}{0}
\setcounter{enumiii}{0}
\setcounter{enumiv}{0}
\setcounter{footnote}{0}
\setcounter{mpfootnote}{0}
\setcounter{part}{0}
\setcounter{chapter}{1}
\setcounter{section}{4}
\setcounter{subsection}{0}
\setcounter{subsubsection}{0}
\setcounter{paragraph}{0}
\setcounter{subparagraph}{0}
\setcounter{figure}{2}
\setcounter{table}{0}
\setcounter{parentequation}{0}
\setcounter{lstnumber}{1}
\setcounter{AlgoLine}{0}
\setcounter{algocfline}{0}
\setcounter{algocfproc}{0}
\setcounter{algocf}{0}
\setcounter{lstlisting}{0}
}
