\relax 
\citation{roth200921st}
\citation{wiscmap}
\citation{wiscmap}
\@writefile{toc}{\contentsline {chapter}{\numberline {2}Related Work}{8}}
\@writefile{lof}{\addvspace {10\p@ }}
\@writefile{lot}{\addvspace {10\p@ }}
\@writefile{loa}{\addvspace {10\p@ }}
\newlabel{ch:relatedwork}{{2}{8}}
\@writefile{toc}{\contentsline {section}{\numberline {2.1}Primary Sources}{8}}
\@writefile{toc}{\contentsline {subsection}{\numberline {2.1.1}University of Wisconsin Map Project}{8}}
\citation{wiscmap}
\citation{roth200921st}
\citation{wiscmap}
\@writefile{lof}{\contentsline {figure}{\numberline {2.1}{\ignorespaces Image taken from map found at \url {http://www.map.wisc.edu/} \cite  {wiscmap}}}{9}}
\citation{wiscmap}
\citation{roth200921st}
\citation{jacob2009campus}
\citation{uclmap}
\@writefile{lof}{\contentsline {figure}{\numberline {2.2}{\ignorespaces Image taken from map found at \url {http://www.map.wisc.edu/} \cite  {wiscmap}}}{10}}
\@writefile{lof}{\contentsline {figure}{\numberline {2.3}{\ignorespaces Image taken from map found at \url {http://www.map.wisc.edu/} \cite  {wiscmap}}}{10}}
\citation{owumap}
\citation{hirammap}
\citation{oberlinmap}
\citation{wabashmap}
\@writefile{toc}{\contentsline {section}{\numberline {2.2}Similar College Campus Maps}{11}}
\@writefile{toc}{\contentsline {subsection}{\numberline {2.2.1}NCAC Schools}{11}}
\citation{owumap}
\citation{oberlinmap}
\citation{hirammap}
\citation{wabashmap}
\citation{oregonmap}
\citation{oregonmap}
\@writefile{lof}{\contentsline {figure}{\numberline {2.4}{\ignorespaces Campus maps: OWU \cite  {owumap}, Oberlin \cite  {oberlinmap}, Hiram \cite  {hirammap}, Wabash \cite  {wabashmap}}}{12}}
\@writefile{toc}{\contentsline {subsection}{\numberline {2.2.2}Oregon University}{12}}
\citation{jacob2009campus}
\citation{uclmap}
\@writefile{lof}{\contentsline {figure}{\numberline {2.5}{\ignorespaces Image taken from map found at \url {https://map.uoregon.edu/} \cite  {oregonmap}}}{13}}
\@writefile{toc}{\contentsline {subsection}{\numberline {2.2.3}University College of London}{13}}
\citation{uclmap}
\citation{emorymap}
\@writefile{lof}{\contentsline {figure}{\numberline {2.6}{\ignorespaces Image taken from map found at \url {http://www.ucl.ac.uk/maps} \cite  {uclmap}}}{14}}
\@writefile{toc}{\contentsline {subsection}{\numberline {2.2.4}Emory University}{14}}
\citation{uclmap}
\@writefile{lof}{\contentsline {figure}{\numberline {2.7}{\ignorespaces Image taken from map found at \url {http://www.ucl.ac.uk/maps} \cite  {uclmap}}}{15}}
\@setckpt{ch02_relatedwork}{
\setcounter{page}{16}
\setcounter{equation}{0}
\setcounter{enumi}{0}
\setcounter{enumii}{0}
\setcounter{enumiii}{0}
\setcounter{enumiv}{0}
\setcounter{footnote}{0}
\setcounter{mpfootnote}{0}
\setcounter{part}{0}
\setcounter{chapter}{2}
\setcounter{section}{2}
\setcounter{subsection}{4}
\setcounter{subsubsection}{0}
\setcounter{paragraph}{0}
\setcounter{subparagraph}{0}
\setcounter{figure}{7}
\setcounter{table}{0}
\setcounter{parentequation}{0}
\setcounter{lstnumber}{1}
\setcounter{AlgoLine}{0}
\setcounter{algocfline}{0}
\setcounter{algocfproc}{0}
\setcounter{algocf}{0}
\setcounter{lstlisting}{0}
}
