\relax 
\citation{arcgisDevs}
\citation{arcgisDevs}
\@writefile{toc}{\contentsline {chapter}{\numberline {3}Campus Map Design}{16}}
\@writefile{lof}{\addvspace {10\p@ }}
\@writefile{lot}{\addvspace {10\p@ }}
\@writefile{loa}{\addvspace {10\p@ }}
\newlabel{ch:method}{{3}{16}}
\@writefile{toc}{\contentsline {section}{\numberline {3.1}Map Components}{16}}
\@writefile{toc}{\contentsline {subsection}{\numberline {3.1.1}Visual Components}{16}}
\@writefile{lof}{\contentsline {figure}{\numberline {3.1}{\ignorespaces An example diagram of visual components of a generic map project \cite  {arcgisDevs}}}{16}}
\newlabel{componentsImg}{{3.1}{16}}
\citation{osmwiki}
\@writefile{toc}{\contentsline {subsection}{\numberline {3.1.2}Technical Components}{17}}
\citation{osmwiki}
\citation{osmwiki}
\@writefile{lof}{\contentsline {figure}{\numberline {3.2}{\ignorespaces An example diagram of the technical overview of a generic map project \cite  {osmwiki}}}{18}}
\newlabel{technicalImg}{{3.2}{18}}
\citation{top10api}
\citation{leaflet}
\citation{nominatim}
\citation{googlegeocoding}
\citation{photon}
\citation{overpasswiki}
\@writefile{toc}{\contentsline {subsection}{\numberline {3.1.3}Base Map}{19}}
\@writefile{toc}{\contentsline {subsection}{\numberline {3.1.4}Data Layers}{19}}
\@writefile{toc}{\contentsline {subsection}{\numberline {3.1.5}Map Data}{20}}
\@writefile{toc}{\contentsline {section}{\numberline {3.2}Desired Functionality}{20}}
\@setckpt{ch03_methodofapproach}{
\setcounter{page}{21}
\setcounter{equation}{0}
\setcounter{enumi}{0}
\setcounter{enumii}{0}
\setcounter{enumiii}{0}
\setcounter{enumiv}{0}
\setcounter{footnote}{0}
\setcounter{mpfootnote}{0}
\setcounter{part}{0}
\setcounter{chapter}{3}
\setcounter{section}{2}
\setcounter{subsection}{0}
\setcounter{subsubsection}{0}
\setcounter{paragraph}{0}
\setcounter{subparagraph}{0}
\setcounter{figure}{2}
\setcounter{table}{0}
\setcounter{parentequation}{0}
\setcounter{lstnumber}{1}
\setcounter{AlgoLine}{0}
\setcounter{algocfline}{0}
\setcounter{algocfproc}{0}
\setcounter{algocf}{0}
\setcounter{lstlisting}{0}
}
