\relax 
\@writefile{toc}{\contentsline {chapter}{\numberline {4}Campus Map Implementation}{21}}
\@writefile{lof}{\addvspace {10\p@ }}
\@writefile{lot}{\addvspace {10\p@ }}
\@writefile{loa}{\addvspace {10\p@ }}
\newlabel{ch:implem}{{4}{21}}
\@writefile{toc}{\contentsline {subsection}{\numberline {4.0.1}License Preface}{21}}
\@writefile{toc}{\contentsline {section}{\numberline {4.1}Overview of Campus Map}{21}}
\@writefile{lof}{\contentsline {figure}{\numberline {4.1}{\ignorespaces Overview of online campus map}}{22}}
\newlabel{campusMap}{{4.1}{22}}
\@writefile{toc}{\contentsline {section}{\numberline {4.2}Technical Components of the Campus Map}{23}}
\@writefile{toc}{\contentsline {section}{\numberline {4.3}Map Outlines}{23}}
\@writefile{toc}{\contentsline {subsection}{\numberline {4.3.1}Allegheny College}{23}}
\@writefile{lof}{\contentsline {figure}{\numberline {4.2}{\ignorespaces Allegheny College outline}}{23}}
\newlabel{campusOutline}{{4.2}{23}}
\@writefile{toc}{\contentsline {subsection}{\numberline {4.3.2}Robertson Athletic Complex}{24}}
\@writefile{lof}{\contentsline {figure}{\numberline {4.3}{\ignorespaces Robertson Athletic Complex outline}}{24}}
\newlabel{robertsonOutline}{{4.3}{24}}
\citation{turbo87}
\@writefile{lol}{\contentsline {lstlisting}{Script2.js}{25}}
\@writefile{lof}{\contentsline {figure}{\numberline {4.4}{\ignorespaces {\tt  Script2.js}: Leaflet method for displaying outlines}}{25}}
\newlabel{outlineCode}{{4.4}{25}}
\@writefile{toc}{\contentsline {section}{\numberline {4.4}Labels}{25}}
\@writefile{lof}{\contentsline {figure}{\numberline {4.5}{\ignorespaces Screenshot displaying the various labels built into the map}}{26}}
\newlabel{labels}{{4.5}{26}}
\@writefile{toc}{\contentsline {section}{\numberline {4.5}Sidebar}{26}}
\citation{turbo87}
\citation{nominatim}
\citation{deickr}
\@writefile{lol}{\contentsline {lstlisting}{Script2.js}{27}}
\@writefile{lof}{\contentsline {figure}{\numberline {4.6}{\ignorespaces {\tt  Script2.js}: Code for left hand sidebar \cite  {turbo87}}}{27}}
\newlabel{sidebarCode}{{4.6}{27}}
\@writefile{lof}{\contentsline {figure}{\numberline {4.7}{\ignorespaces Screenshot displaying the usage of the sidebar}}{27}}
\newlabel{sidebarImg}{{4.7}{27}}
\citation{deickr}
\@writefile{toc}{\contentsline {section}{\numberline {4.6}Search Bar}{28}}
\@writefile{lol}{\contentsline {lstlisting}{Script2.js}{28}}
\@writefile{lof}{\contentsline {figure}{\numberline {4.8}{\ignorespaces {\tt  Script2.js}: Code for Search Bar Query \cite  {deickr}}}{28}}
\newlabel{nominatim}{{4.8}{28}}
\citation{pointhi}
\@writefile{lof}{\contentsline {figure}{\numberline {4.9}{\ignorespaces Screenshot displaying the usage of the search bar}}{29}}
\newlabel{searchBar}{{4.9}{29}}
\@writefile{toc}{\contentsline {section}{\numberline {4.7}Markers and Popups}{29}}
\@writefile{lol}{\contentsline {lstlisting}{Script2.js}{30}}
\@writefile{lof}{\contentsline {figure}{\numberline {4.10}{\ignorespaces {\tt  Script2.js}: Code for Academic Building Markers and Popups}}{30}}
\newlabel{markerCode}{{4.10}{30}}
\citation{pointhi}
\@writefile{lof}{\contentsline {figure}{\numberline {4.11}{\ignorespaces Screenshot displaying the different markers on the map and the use of a popup}}{31}}
\newlabel{markerImg}{{4.11}{31}}
\@writefile{toc}{\contentsline {section}{\numberline {4.8}Map Legend}{31}}
\@writefile{lol}{\contentsline {lstlisting}{Script2.js}{32}}
\@writefile{lof}{\contentsline {figure}{\numberline {4.12}{\ignorespaces {\tt  Script2.js}: Code for Map Legend}}{32}}
\newlabel{legendCode}{{4.12}{32}}
\@writefile{lof}{\contentsline {figure}{\numberline {4.13}{\ignorespaces Screenshot showing the Map Legend}}{33}}
\newlabel{legendImg}{{4.13}{33}}
\@setckpt{ch04_implementation}{
\setcounter{page}{34}
\setcounter{equation}{0}
\setcounter{enumi}{0}
\setcounter{enumii}{0}
\setcounter{enumiii}{0}
\setcounter{enumiv}{0}
\setcounter{footnote}{0}
\setcounter{mpfootnote}{0}
\setcounter{part}{0}
\setcounter{chapter}{4}
\setcounter{section}{8}
\setcounter{subsection}{0}
\setcounter{subsubsection}{0}
\setcounter{paragraph}{0}
\setcounter{subparagraph}{0}
\setcounter{figure}{13}
\setcounter{table}{0}
\setcounter{parentequation}{0}
\setcounter{lstnumber}{29}
\setcounter{AlgoLine}{0}
\setcounter{algocfline}{0}
\setcounter{algocfproc}{0}
\setcounter{algocf}{0}
\setcounter{lstlisting}{0}
}
