\relax 
\@writefile{toc}{\contentsline {chapter}{\numberline {5}Discussion and Future Work}{34}}
\@writefile{lof}{\addvspace {10\p@ }}
\@writefile{lot}{\addvspace {10\p@ }}
\@writefile{loa}{\addvspace {10\p@ }}
\newlabel{ch:conclusion}{{5}{34}}
\@writefile{toc}{\contentsline {section}{\numberline {5.1}Map Usage}{34}}
\@writefile{toc}{\contentsline {section}{\numberline {5.2}Discussion on the Two Map APIs}{35}}
\@writefile{toc}{\contentsline {section}{\numberline {5.3}Project Limitations}{36}}
\@writefile{toc}{\contentsline {section}{\numberline {5.4}Future Work}{36}}
\@writefile{toc}{\contentsline {section}{\numberline {5.5}Conclusion}{37}}
\@setckpt{ch05_conclusion}{
\setcounter{page}{38}
\setcounter{equation}{0}
\setcounter{enumi}{0}
\setcounter{enumii}{0}
\setcounter{enumiii}{0}
\setcounter{enumiv}{0}
\setcounter{footnote}{0}
\setcounter{mpfootnote}{0}
\setcounter{part}{0}
\setcounter{chapter}{5}
\setcounter{section}{5}
\setcounter{subsection}{0}
\setcounter{subsubsection}{0}
\setcounter{paragraph}{0}
\setcounter{subparagraph}{0}
\setcounter{figure}{0}
\setcounter{table}{0}
\setcounter{parentequation}{0}
\setcounter{lstnumber}{29}
\setcounter{AlgoLine}{0}
\setcounter{algocfline}{0}
\setcounter{algocfproc}{0}
\setcounter{algocf}{0}
\setcounter{lstlisting}{0}
}
